{
  "tags": [
    {
      "name": "2022",
      "id": 1
    },
    {
      "name": "new",
      "id": 2
    }
  ],
  "notes": [
    {
      "id": 1,
      "text": "Lorem Ipsum is simply dummy text of the printing and typesetting industry. Lorem Ipsum has been the industry's standard dummy text ever since the 1500s, when an unknown printer took a galley of type and scrambled it to make a type specimen book. #2022 #2022 "
    },
    {
      "id": 2,
      "text": "Many desktop publishing packages and web page editors now use Lorem #new their default model text, and a search for 'lorem ipsum' will uncover many web sites still in their infancy. Various versions have evolved over the years, sometimes by accident, sometimes on purpose (injected humour and the like). #2022"
    },
    {
      "id": 3,
      "text": "Hello World!"
    }
  ]
}